{
  "extends": "strict-tslint-config",
  "linterOptions": {
    "exclude": ["**/node_modules/**"]
  },
  "rules": {
    "semicolon": true,
    "cyclomatic-complexity": true,
    "member-access": true,
    "linebreak-style": false,
    "no-import-side-effect": false,
    "prefer-readonly": true,
    "prefer-const": true,
    "prefer-switch": true,
    "increment-decrement": false,
    "file-name-casing": [],
    "quotemark": [true, "single"],
    "no-any": false,
    "no-implicit-dependencies": false,
    "prefer-function-over-method": false
  }
}
